^C:\USERS\ADMIN\ONEDRIVE\РАБОЧИЙ СТОЛ\АРХИТЕКТУРА ВЫЧИСЛИТЕЛЬНЫХ СИСТЕМ\ДЗ\PINSPRODUCTION2\PINSPRODUCTION2\DEBUG\PINSPRODUCTION2.OBJ
C:\USERS\ADMIN\ONEDRIVE\Рабочий стол\Архитектура вычислительных систем\Дз\PINSPRODUCTION2\DEBUG\PINSPRODUCTION2.EXE
C:\USERS\ADMIN\ONEDRIVE\Рабочий стол\Архитектура вычислительных систем\Дз\PINSPRODUCTION2\DEBUG\PINSPRODUCTION2.ILK
C:\USERS\ADMIN\ONEDRIVE\РАБОЧИЙ СТОЛ\АРХИТЕКТУРА ВЫЧИСЛИТЕЛЬНЫХ СИСТЕМ\ДЗ\PINSPRODUCTION2\DEBUG\PINSPRODUCTION2.PDB
